…
Whenever I do a calculation or summary operation I like to look at the
whole result to check that everything makes sense and scan for problems.
So I would do this to print every row:

``` r
print(lnrad_mean_var, n=Inf) #n=Inf to print all rows
```

But here are the first 10 rows

``` r
print(lnrad_mean_var, n=10) #n=Inf to print all rows
```

    ## # A tibble: 85 × 6
    ##    county     sample_size cty_mn cty_sd cty_se sample_size_jit
    ##    <fct>            <int>  <dbl>  <dbl>  <dbl>           <dbl>
    ##  1 AITKIN               4  0.660  0.459  0.230            4.00
    ##  2 ANOKA               52  0.833  0.770  0.107           52.1 
    ##  3 BECKER               3  1.05   0.750  0.433            3.14
    ##  4 BELTRAMI             7  1.14   0.968  0.366            7.11
    ##  5 BENTON               4  1.25   0.424  0.212            3.84
    ##  6 BIG STONE            3  1.51   0.516  0.298            3.05
    ##  7 BLUE EARTH          14  1.91   0.553  0.148           13.9 
    ##  8 BROWN                4  1.63   0.608  0.304            3.99
    ##  9 CARLTON             10  0.931  0.615  0.194           10.1 
    ## 10 CARVER               6  1.20   1.90   0.777            6.07
    ## # ℹ 75 more rows
…
